There are 6 ways to produce 17 cents change.
There are 4 ways to produce 11 cents change.
There is only 1 way to produce 4 cents change.
There is only 1 way to produce 0 cents change.
There is only 1 way to produce 1 cents change.
There are 543065523200 ways to produce 29999 cents change.
There are 543427145501 ways to produce 30000 cents change.
There are 3625484886 ways to produce 8542 cents change.
There are 1759404504 ways to produce 7123 cents change.
There are 434761756704 ways to produce 28374 cents change.
There are 36603513909 ways to produce 15260 cents change.
There are 27896716562 ways to produce 14258 cents change.
There are 880803 ways to produce 1026 cents change.
There are 369607442 ways to produce 4806 cents change.
There are 229494139 ways to produce 4262 cents change.
There are 62919654525 ways to produce 17482 cents change.
There are 376737 ways to produce 823 cents change.
There are 673337168 ways to produce 5590 cents change.
There are 19889165652 ways to produce 13098 cents change.
There are 366655185360 ways to produce 27186 cents change.
There are 197245834518 ways to produce 23277 cents change.
There are 478550226627 ways to produce 29062 cents change.
There are 96244748145 ways to produce 19449 cents change.
There are 13178810652 ways to produce 11813 cents change.
There are 719885395 ways to produce 5689 cents change.
There are 209709283784 ways to produce 23636 cents change.
There are 117338059080 ways to produce 20439 cents change.
There are 175383376867 ways to produce 22601 cents change.
There are 130582100460 ways to produce 20993 cents change.
There are 433844537240 ways to produce 28358 cents change.
There are 44101428160 ways to produce 15994 cents change.
There are 144561956 ways to produce 3792 cents change.
There are 206364559836 ways to produce 23542 cents change.
There are 129591789740 ways to produce 20953 cents change.
There are 525084 ways to produce 899 cents change.
There are 503543040 ways to produce 5199 cents change.
There are 7988111670 ways to produce 10415 cents change.
There are 970825388 ways to produce 6130 cents change.
There are 423250532090 ways to produce 28180 cents change.
There are 8632828159 ways to produce 10623 cents change.
There are 494866781627 ways to produce 29308 cents change.
There are 8520086762 ways to produce 10586 cents change.
There are 1911377104 ways to produce 7271 cents change.
There are 578474118 ways to produce 5384 cents change.
There are 478879127243 ways to produce 29069 cents change.
There are 401779848618 ways to produce 27815 cents change.
There are 14516153532 ways to produce 12100 cents change.
There are 225359816493 ways to produce 24069 cents change.
There are 39305593184 ways to produce 15536 cents change.
There are 515168745 ways to produce 5226 cents change.
There are 12674938380 ways to produce 11699 cents change.
There are 32985 ways to produce 429 cents change.
There are 73428001920 ways to produce 18173 cents change.
There are 193384141720 ways to produce 23162 cents change.
There are 29166131430 ways to produce 14419 cents change.
There are 60570621 ways to produce 3042 cents change.
There are 55125630720 ways to produce 16913 cents change.
There are 103033574358 ways to produce 19782 cents change.
There are 99849321753 ways to produce 19629 cents change.
There are 253915248384 ways to produce 24797 cents change.
There are 453643827 ways to produce 5062 cents change.
There are 66253824 ways to produce 3114 cents change.
There are 82002281625 ways to produce 18681 cents change.
There are 52388460 ways to produce 2933 cents change.
There are 6117703410 ways to produce 9743 cents change.
There are 12060379640 ways to produce 11553 cents change.
There are 533013172250 ways to produce 29856 cents change.
There are 13156595852 ways to produce 11809 cents change.
There are 171255 ways to produce 669 cents change.
There are 9436341569 ways to produce 10863 cents change.
There are 15271353722 ways to produce 12258 cents change.
There are 72385630955 ways to produce 18109 cents change.
There are 161708262534 ways to produce 22145 cents change.
There are 9804976610 ways to produce 10968 cents change.
There are 252 ways to produce 96 cents change.
There are 5126 ways to produce 250 cents change.
There are 130333992530 ways to produce 20982 cents change.
There are 72777120 ways to produce 3186 cents change.
There are 69867079380 ways to produce 17945 cents change.
There are 1361495610 ways to produce 6678 cents change.
There are 249280 ways to produce 737 cents change.
There are 5656313920 ways to produce 9552 cents change.
There are 32136993504 ways to produce 14774 cents change.
There are 198942748134 ways to produce 23327 cents change.
There are 114162723444 ways to produce 20296 cents change.
There are 105656503001 ways to produce 19908 cents change.
There are 64587274752 ways to produce 17596 cents change.
There are 4437434010 ways to produce 8985 cents change.
There are 6180449086 ways to produce 9768 cents change.
There are 2439254220 ways to produce 7730 cents change.
There are 305470969440 ways to produce 25972 cents change.
There are 106826319800 ways to produce 19962 cents change.
There are 110503597828 ways to produce 20133 cents change.
There are 263029929506 ways to produce 25019 cents change.
There are 47728061952 ways to produce 16314 cents change.
There are 294583065280 ways to produce 25736 cents change.
There are 13023896708 ways to produce 11778 cents change.
There are 80178628284 ways to produce 18575 cents change.
There are 2099799 ways to produce 1289 cents change.
There are 38306293280 ways to produce 15437 cents change.
There are 3451392360 ways to produce 8436 cents change.
There are 310995007 ways to produce 4604 cents change.
There are 25120095429 ways to produce 13886 cents change.
There are 1258468 ways to produce 1129 cents change.
There are 21735954276 ways to produce 13394 cents change.
There are 25482639840 ways to produce 13938 cents change.
There are 3850057400 ways to produce 8674 cents change.
There are 489493771065 ways to produce 29226 cents change.
There are 62 ways to produce 59 cents change.
There are 389521359717 ways to produce 27601 cents change.
There are 19949769005 ways to produce 13109 cents change.
There are 370711071549 ways to produce 27261 cents change.
There are 61756402 ways to produce 3058 cents change.
There are 961430156 ways to produce 6116 cents change.
There are 173685879114 ways to produce 22548 cents change.
There are 33235224204 ways to produce 14898 cents change.
There are 2322239304 ways to produce 7635 cents change.
There are 1435884396 ways to produce 6768 cents change.
There are 87256512 ways to produce 3335 cents change.
There are 42421046512 ways to produce 15839 cents change.
There are 76124584512 ways to produce 18338 cents change.
There are 189251261584 ways to produce 23038 cents change.
There are 355212636480 ways to produce 26972 cents change.
There are 281330359645 ways to produce 25444 cents change.
There are 83945959656 ways to produce 18790 cents change.
There are 192884655464 ways to produce 23146 cents change.
There are 72327840 ways to produce 3180 cents change.
There are 119414027058 ways to produce 20527 cents change.
There are 185023705851 ways to produce 22905 cents change.
There are 4790368 ways to produce 1591 cents change.
There are 31320718170 ways to produce 14678 cents change.
There are 144380693448 ways to produce 21527 cents change.
There are 99173585 ways to produce 3449 cents change.
There are 432014452884 ways to produce 28325 cents change.
There are 2606478679 ways to produce 7862 cents change.
There are 286666129152 ways to produce 25563 cents change.
There are 56437506444 ways to produce 17014 cents change.
There are 186165 ways to produce 683 cents change.
There are 151468081434 ways to produce 21785 cents change.
There are 72385630955 ways to produce 18108 cents change.
There are 22456470826 ways to produce 13501 cents change.
There are 133839845724 ways to produce 21123 cents change.
There are 1353412395 ways to produce 6668 cents change.
There are 317741103 ways to produce 4626 cents change.
There are 227799670868 ways to produce 24131 cents change.
There are 380582460225 ways to produce 27440 cents change.
There are 190731388309 ways to produce 23084 cents change.
There are 3370731364 ways to produce 8385 cents change.
There are 291396871005 ways to produce 25669 cents change.
There are 18821732020 ways to produce 12916 cents change.
There are 27086489492 ways to produce 14152 cents change.
There are 429583354389 ways to produce 28287 cents change.
There are 80783097164 ways to produce 18613 cents change.
There are 81303927881 ways to produce 18644 cents change.
There are 427766774842 ways to produce 28257 cents change.
There are 89422666118 ways to produce 19094 cents change.
There are 19320296451 ways to produce 13001 cents change.
There are 4447267740 ways to produce 8992 cents change.
There are 77878828215 ways to produce 18442 cents change.
There are 68174106112 ways to produce 17835 cents change.
There are 62556543 ways to produce 3068 cents change.
There are 25482639840 ways to produce 13935 cents change.
There are 14902346970 ways to produce 12183 cents change.
There are 195896138680 ways to produce 23239 cents change.
There are 407870615880 ways to produce 27923 cents change.
There are 4330335780 ways to produce 8931 cents change.
There are 99747848629 ways to produce 19622 cents change.
There are 152245093 ways to produce 3840 cents change.
There are 110613170304 ways to produce 20135 cents change.
There are 441842178215 ways to produce 28486 cents change.
There are 10002327179 ways to produce 11020 cents change.
There are 6294606252 ways to produce 9810 cents change.
There are 11710675515 ways to produce 11468 cents change.
There are 54092706434 ways to produce 16830 cents change.
There are 1038312 ways to produce 1070 cents change.
There are 415211523199 ways to produce 28048 cents change.
There are 54607336784 ways to produce 16874 cents change.
There are 61991491450 ways to produce 17415 cents change.
There are 5089586480 ways to produce 9304 cents change.
There are 85110616710 ways to produce 18856 cents change.
There are 425881650 ways to produce 4983 cents change.
There are 52822044240 ways to produce 16731 cents change.
There are 63364434 ways to produce 3076 cents change.
There are 18247610118 ways to produce 12818 cents change.
There are 9884680 ways to produce 1916 cents change.
There are 163170520960 ways to produce 22195 cents change.
There are 121399841724 ways to produce 20613 cents change.
There are 1439300 ways to produce 1169 cents change.
There are 541047426 ways to produce 5292 cents change.
There are 8681486944 ways to produce 10635 cents change.
There are 75054980 ways to produce 3210 cents change.
There are 161562579326 ways to produce 22143 cents change.
There are 79065050624 ways to produce 18514 cents change.
There are 22020112 ways to produce 2352 cents change.
There are 61214176314 ways to produce 17363 cents change.
There are 666199184 ways to produce 5579 cents change.
There are 135236315800 ways to produce 21177 cents change.
There are 12776379 ways to produce 2047 cents change.
There are 446194126092 ways to produce 28558 cents change.
There are 248440727535 ways to produce 24663 cents change.
