    7 10
    ONE       1500 2 2 0 3 1 5
    TWO       2000 4 3 1 4 0 5 5 10
    THREE     3000 1 1 1 9
    FOUR      5000 3 4 0 4 19 22 22 32 9 12
    FIVE      1500 10 10 0 9 0 9 0 9 0 9 0 9 0 9 0 9 0 9 0 9 0 9
    SIX       2147483647 10 1 0 1
    SEVEN     2147483648 10 1 0 1
    ONE       2 4
    THREE     7
    TWO       2 0 6
    TWO       3 3 9
    FOUR      1 20 23 11
    FOUR      4 21 31 9
    THREE     8
    FIVE      9 9 9 9 9 9 9 9 9 9
    SIX       0
    SEVEN     0
