300 + 3
11 + 9999999999999999999999
9999999999999999999999 + 11
2147483647 + 1
1 + 2147483647
2147483646 + 1
1 + 2147483646
107374182 * 20
2527641600 * 3727949827
3775414282 + 3185614859
1210900497 + 1576103939
2447548442 * 3918209051
4037656606 * 2136981544
2296299573 * 1405673528
167788602 * 2306778463
687652926 * 1607680065
109838406 + 1507393609
2273098423 * 3934871641
1224540281 + 3247112316
4207075457 * 4272914564
2231214213 + 1275617416
3420946569 * 254042253
1508507790 + 1712038037
3626688664 + 3525714073
592109723 + 2111258788
902602924 * 3670728878
2776301744 + 1271177407
1841922247 * 1525334221
1243021519 + 2207350995
742072535 + 246718683
3738804444 + 83394784
3725533413 * 1270309098
2442445037 * 603832360
2765775090 * 2639724791
3769458937 * 1872388351
560808192 + 3176841473
1527591385 + 1490788611
2243838212 + 642720005
1123279112 + 3933626633
354320663 + 3582384858
1467834657 * 3191308578
2560672035 * 364781863
3172327720 * 2149237034
3828777261 + 2804203822
2733424944 * 3264717112
1819333654 * 2356314427
1981530430 + 133480501
644874562 * 1698464071
3363496265 + 3493856653
1212350802 * 4137730392
2274812254 + 1118796517
1414594914 + 4244693348
4044685672 * 1884319726
2000142703 + 1664393585
3636560242 + 2662413715
3614466421 * 3959816567
1113014650 + 2648326524
4258709885 + 3272786309
559628678 * 540926343
4159070602 + 2273737453
1441276308 * 3315589526
4091429272 + 2636702112
4193231265 + 3088769444
2908823978 * 1364402606
4015497647 + 3084951984
2987483571 + 4282204598
2924528056 + 3370945268
818094523 + 3105014210
3067208131 + 1954169286
1238286791 * 998293963
3925139917 + 391168463
1616462288 * 1892360657
1065116119 + 3999842777
3558457820 * 3721044448
1473880562 * 259924470
3117179383 + 1038565881
3978273274 + 1485693438
1325285887 * 1320002050
453304835 + 331907590
597164559 + 4029227536
2889622038 * 4287865380
2622702117 * 2933195306
1165910572 + 814306738
130917811 * 3143864414
2544386614 * 2297414232
312992348 + 322749022
347054689 + 389849705
1292886637 * 1907606128
3545981553 + 2557682295
3321815673 + 696722042
1976918652 * 1273717376
221291147 + 353706636
1764246157 + 450904721
342360723 * 3360539286
2859631257 + 1570226845
458539680 + 3884843688
3713163968 + 2960753346
3949008331 * 1598104268
1624638162 * 1942479572
696845774 + 1481343706
2767250142 * 2941158113
749470441 * 911901418
1928913643 * 3183739632
2770805493 + 2629663529
360039162 * 4016636669
2035262208 + 1916470019
4271940356 * 1333338885
1916453650 + 2168726291
222454552 * 2924667677
2798306078 * 3655491717
1255818020 + 2991137579
1134658350 + 1111073585
4161856309 + 995779387
876479292 * 3861734206
2970944323 * 151913284
440017738 * 1414742859
3921298252 + 1033544525
4081451864 * 84722521
684196700 + 3025273694
3096503139 * 950928870
3061531494 * 314393449
1009836911 + 2476147570
2280645492 * 183354233
57238395 * 3342538707
813523842 + 3472560278
725746567 + 2611233686
2793659204 * 2837962907
2727887782 + 650737137
1995137960 * 3311313840
4060857270 + 2673927096
4159169469 * 436782015
975766465 + 1288037314
3093160904 + 3249444343
3008475299 + 2829304792
1809490905 + 1487807452
2178491357 + 3782476778
3989693421 + 2415510513
3253314551 * 4037133306
1887634428 * 854729725
3017303039 * 2786247680
4208550914 * 340837637
1522738185 * 3826942995
820495387 + 4204626975
4160250914 + 2939847715
4047381543 * 1330398255
3180921910 * 3922101308
961446973 * 2793948230
3784852551 * 1868547151
2845279315 * 1245430875
867640412 + 3339838559
4214711395 * 977312614
2856780903 * 1730765928
2053334127 * 599123056
3555517557 + 1166656636
1156981900 * 2207630490
1891034267 + 2661844125
2123383967 * 2971575456
3701548194 * 3921773732
1563542704 * 2368554163
1291101365 + 1159742651
3028042940 * 2584847558
4268082388 * 324814042
3187908815 * 1753793759
2779702496 + 3849897186
3074276207 * 2350638311
1561085163 * 4025009392
2324677874 + 1747141891
377496837 + 1869677831
791012620 + 2105361689
2294400283 + 2452981020
1171039521 + 554722865
3937535275 + 1373603118
864011567 * 287153033
1746363708 * 3384501567
4152362307 + 1311049032
2506999113 + 3624756561
708945240 + 1351271772
1176388958 * 1997017317
4202833248 + 2202240353
3153905001 + 2747975018
1171350892 + 2554283376
1005061489 + 2663589235
2515240309 + 3282773372
507626880 * 53683592
2087470476 * 4201317773
2867774870 + 888056730
1538221473 * 830743970
3733235108 * 2790032813
824739251 * 3856803252
598689211 * 2199954877
679765438 + 3782264256
1604381600 + 3147318724
684516807 + 3770435016
4247617783 * 2413757900
2221901261 + 1385235918
3252471248 * 178308561
2384184910 + 1771251161
2298422751 + 1907656160
4142993659 + 3760260582
2093598183 + 2845574638
1070081522 * 2660533760
2646738433 + 3753747971
296609289 + 124569105
3504047634 + 999491093
4002194967 * 1071973915
3936020001 * 4234855972
872973861 * 3504735785
3188026290 * 637249072
2641121544 + 1203897906
2964203061 + 409388603
3444786757 * 3106170440
4039288395 + 1240360525
1673864782 + 3832997457
3612132947 + 2415306324
3851241046 + 3546867287
1242564185 * 3175810659
3507054180 * 3132163691
1667659368 + 1958209147
131540612 + 556951180
967673485 * 2006435472
2869978773 + 562185884
67724960 * 4001941156
2405615276 + 3195356845
3464488626 * 951125684
2778048186 * 2030749386
2586085068 + 1620862671
3724576469 + 2863195867
2173929183 * 1771833062
3758712556 + 243558133
4099013588 * 342238973
3289827074 + 4018177796
1249789706 + 1294255883
2146739981 + 1211983631
784746256 * 1129572116
4037822229 + 1407772438
922975194 + 637560615
3022841642 * 2168170283
797002111 * 2570767326
1970431799 * 1606756154
2131199807 + 3661514568
1810777933 + 4007356238
2474116749 + 1428268881
1894516564 * 1254991707
803194722 + 3323389796
3196487525 + 1679050600
781641579 + 3613001580
2008205166 * 3813443441
3951740786 + 2119567221
3679422326 * 4197582712
3094921535 * 930703229
3368585088 * 2248902531
1214433156 + 2930902918
1573300107 + 4035588418
2598102930 + 2078541724
271624099 * 3551307693
2550876082 + 3034400693
2906335158 * 1869285304
1011173310 * 904914884
2038073291 + 332728271
3451553744 * 2855053273
1872062430 + 2612176873
1169991663 * 2180564978
530171895 + 3497887743
3206227969 * 721184774
1137182728 + 1058776748
714475533 * 189278222
2375821327 + 3715631121
517154834 + 2760181782
2987788311 + 699500578
2952276004 + 1127122981
2449819689 * 3922012208
952714932 * 3128049035
1034324029 + 3117738058
3041932983 * 1911007309
3828803662 + 3489987598
621750364 * 933701732
3034576572 + 3907373162
2005903467 + 1175963758
3549738686 + 2593155190
1671301239 + 2957568123
1851320448 + 1064336406
2980595851 + 2182367372
167127181 + 32172183
167976820 + 488360091
164440221 * 2439997600
4170156193 + 2488682660
341518501 + 3999901862
2777753768 * 2684215666
308447412 + 967395512
344377034 * 1003702467
3425560778 * 2120796367
1340729554 * 1464690901
2901821654 * 1368678778
901728478 + 3289204961
3598510307 * 2744289508
1015474405 * 847489254
257775313 + 4226861288
2404313325 + 695940819
526993654 * 409397497
2031061249 + 3561089282
3766216965 + 440953094
3100625160 + 1146145040
2479470296 + 2083195156
1743628566 + 4281518363
1399236892 + 4022765859
685484328 + 2014912903
2831706418 * 1199687993
1393584442 + 2424694869
2885101887 + 2123499840
572369217 * 3531286852
1185253701 * 1009346890
1497222199 * 1612884305
2973083991 + 1054579750
3398043998 + 2292074849
3697920356 + 3888621927
2324769140 * 3039078773
3057019261 * 1703910712
2328414594 + 2184694152
318835081 + 3767675274
293464464 * 3833170323
2146470292 + 3436243353
3416476058 * 2074995106
630720934 + 2136410536
2775042473 + 2418674090
3272681903 + 2444994996
1283279289 + 1449429435
3715656127 * 1981032898
1345489348 * 3854191051
879825315 + 2148329945
2302503387 * 2291796450
103418340 * 2405509608
648407534 * 3410605821
1406740980 * 4210739701
308767224 * 531759530
3861547521 + 4196460290
2099833360 + 3257436692
1215662613 * 567953944
3828075038 * 762726945
875661871 * 3462613554
1379691062 * 3023809850
2959084094 + 1799350849
1767639624 + 3254700622
3336587855 + 264235601
4209306205 * 884664927
304474725 * 1373645414
909134446 * 3380857456
1174690920 * 3105893481
3608423033 * 1958857341
2635115135 + 2140973700
3702000265 * 3278744204
1622911629 + 2296728213
3404073626 + 2559421087
1767942816 * 2429291169
3870968484 * 3383806631
3895896747 * 2807909037
3696896689 + 3780799158
3199314621 + 4152937156
1765501648 + 2975517398
1870211802 * 4187709903
1914309345 + 1708870370
1724369637 * 408627942
485010154 + 2034076398
837094132 + 1940818691
4147628815 + 3206982416
950405910 * 1678805783
2166762265 + 790637340
647605027 + 3197283109
4268485418 + 2457381682
3150318387 + 1630030646
4125543230 + 568257346
1366272835 * 311044941
937724760 * 2561403744
5262179 * 3578596199
695454569 + 1060727667
2505902965 + 2556267389
2983201662 + 1658997639
4042157207 + 2494958484
3885779866 * 3531942815
1297181600 + 3477564338
4123470771 + 1933519800
163310530 * 3196775365
3063416653 + 2713217506
1556671443 + 3935366106
1751296990 + 405760996
1239542759 * 1164700652
1830726640 + 1769253873
1248406515 + 576154612
451652598 + 2355850232
2975615993 * 1327115263
3613883563 * 737840134
2640956423 + 3178122412
2845494283 * 3273671170
3182136336 + 845745178
732083187 + 2323464710
3935882285 * 3296472118
2766049801 + 26741816
575097919 + 733752386
3539233863 + 4113894475
3475729484 * 1455574098
1359236183 * 3689581656
1345170521 * 2081784335
996011110 * 90213564
2946967400 * 968815123
311766134 * 2589965368
2860731512 * 1123552384
3480479595 + 233573510
2934426759 + 2820945772
454252397 * 2786749591
2637630624 * 3879488674
559746211 * 2911194284
2047241394 + 4277259444
3633138869 * 2799807676
1081961663 + 1020849346
1831775431 + 4251684041
3171454158 * 669576400
2552138964 + 2413595868
3381508022 + 1580608741
3116944614 + 3811297149
2462223602 * 4251520243
1711385845 * 4294520057
1259195643 * 3005050116
3304049927 + 3093531917
4220964120 * 161066271
1037006726 + 2274856247
973204794 * 2471013693
2676796743 + 2488315208
1358482762 + 3589074252
1306807632 * 3907407188
619564374 + 3876621661
2046065894 + 1928293737
2300259708 * 1483152618
1622502788 + 847121800
2301857164 + 1928154509
1875963279 * 501247377
4237897108 * 323235232
3452464546 + 941706660
50982318 * 212913589
3876621755 * 3050352067
1835740612 + 667971014
2565148103 * 170152525
3450670545 * 89611513
2917043672 * 3540995546
936652251 * 3073011164
68111842 + 8424931
2885987818 * 3689459179
2688847341 * 3633147380
2050510328 * 2427260411
773852669 * 3787566590
2077085183 + 3538287872
2975731212 + 2541686293
3900313116 * 2543865375
1010961958 * 3476783708
3537817139 + 1579798070
984256068 * 1259919286
2463157833 * 2859773514
3414126157 + 1851280984
2406313565 * 1618857568
3155889770 + 3304526440
1692065719 * 2752605820
2557341310 + 1753116287
643772032 * 3814944396
2907729553 + 1434807963
120778398 * 3798855328
1544441506 + 1689415336
450637486 * 907341492
2071776959 + 3505508032
208473794 * 1507339976
319344331 * 3341070033
3504615122 + 1222499619
41304697 + 3677007585
3344019171 + 380745874
4197827196 * 3977211635
1389392597 * 1481379580
2098458381 * 184078095
1907732241 * 3115659031
809479967 * 1537756965
2457366313 * 2875109166
2209738543 * 3821408051
1663864628 + 4040290103
3481022264 + 1708797761
311578434 + 817482964
727723848 + 2563605599
1338920247 * 1072213838
3932396856 + 812822354
795118906 + 4085509984
3159232362 * 4285951851
17182572 * 919235901
344559472 * 996323185
186355576 * 3265990529
3297251204 + 1861013390
3771838353 + 1718038430
3249844133 + 99061674
2941759411 * 2821197748
501002165 + 1637912508
4027617218 * 1270026195
791875543 * 2077437912
575721434 + 4260794331
3924848620 + 3238374406
1965903855 + 1685283496
731115507 * 1911697396
3088330742 * 2710482938
1908582399 * 2350649347
917424129 + 3913306121
1786875915 * 726675468
565350419 + 1606561820
3074297888 * 1989316642
3767980074 * 647745579
3994284076 + 2068443184
325488695 * 4235554876
2600906813 + 1810288709
4031221835 * 222072909
1368436820 * 1067331678
962501989 * 4016353379
3512094820 + 3119411315
3898675316 * 3070741865
2552025215 * 777678976
3718852737 + 2375548267
1751566358 + 1436430470
757616775 + 505368715
3786207372 * 3498531411
1075261589 + 1698058390
1658679457 * 1706905763
2524697287 * 3340137160
4154060980 * 2129440961
2329858244 + 162762950
4058845386 + 1444884684
1496363217 + 23859414
3530379480 * 53579996
3991608698 + 1178431717
3488854246 * 3947623121
613495024 + 2680697077
2823834680 * 1817350393
1047338367 * 1980461309
2068041983 + 124505724
2695180552 + 1095012622
3548664085 * 15495448
3774910745 * 1210831138
3662778666 + 2307592496
1312018738 * 3002347834
441258303 + 834187584
482832706 * 1712648515
2479133002 * 1207906643
3746708407 + 272101730
1218416997 + 1127829866
1968640366 * 3478708969
2415325564 + 97644929
4088156548 + 3069088139
2332553612 + 2470597006
4173255055 + 1752568212
4204737262 * 2329866648
2297524634 + 2672284066
874631587 * 3079516598
526397879 * 2456676426
2738655679 + 963965386
2631798178 * 3452793300
224965080 * 954715556
3026817505 * 237525530
2854605283 + 2925556205
833753587 * 1055207934
3839322197 * 1512690177
2932347396 + 4163981833
694293004 * 3693523472
3544822531 * 2743407124
1632039445 * 85545497
2889224739 + 1606726181
3110703152 + 1047196206
4163998259 + 830665269
2243555894 + 1643377208
3273232970 + 1483207245
1902686804 + 929182306
2339312227 + 737849960
3418428016 + 1044927096
1884820093 * 2949539947
1807053444 + 3873632906
3486028427 + 484807315
876065561 * 1659122329
1150579355 + 3692925598
4018360994 * 2847879843
2231792293 + 3609948839
3588870831 + 913191604
414069433 * 3436196539
2636462197 * 3859518144
3444486855 + 168096456
1689293519 * 1790948049
4258706133 + 3323704034
3872281315 * 2211664620
2305028846 * 3221517046
4239790849 + 254341891
2169369388 + 3271324426
2849467864 * 3805606675
96637719 * 2946683672
3888599833 + 2690880294
1069789996 + 4118754097
1107039027 * 1253357705
2702480190 * 2917593921
871093060 + 2338272080
1374055907 + 4216820565
3744863062 * 1506235226
1639912284 + 2031170399
4120863746 + 490918765
1869132655 + 3575165809
420991860 * 3001316213
2318717816 * 3972830073
743883549 + 3791336325
2646053770 + 131928974
358470543 + 2322772881
4088968091 + 3727455132
1285682097 + 1289606066
3416806323 + 2643432373
2216194998 * 2311680954
2585727931 + 2641785790
2378396611 * 4046558148
1884476373 * 2977436631
3718452185 + 2971096031
1362506720 + 181408743
3253318632 + 3778919736
2208879597 * 305198067
2745373684 * 2121962487
3868308477 * 503960577
453776386 + 1950913540
838972421 * 1998009352
4230099977 + 3600421905
1410135058 + 1133925396
4156199958 + 3524965399
1029944353 * 863695908
4208292907 + 332346413
272421936 + 3153228867
2634478661 + 3064319731
2671899720 + 3814659146
3071964235 * 1772082252
1530565719 * 2087261283
2907223144 + 389985389
1174664302 * 1385985142
2948945015 * 2391864444
2035053693 + 797160578
916870277 * 2675831943
3463828624 + 3569824913
2693264530 * 1408382100
3283350678 * 3032929435
1727214750 * 2967344287
2688578720 * 4199797924
3982365865 * 4283675821
2214778040 * 3220591804
637572290 * 1344337097
3400144081 + 1819497337
2085819617 + 1899975908
174445798 * 641783017
1179284723 + 2768295158
988689658 * 453211388
4045501694 + 640501973
3601741056 * 458872069
143217926 * 2028025096
4027004170 + 3424367890
4030666007 + 395539739
583889797 + 414004513
2750863580 + 1593709867
2206782768 * 3732034866
3018233145 + 772502849
968217922 * 2735338820
2829940044 * 2954664163
3089576846 + 2833134934
1468388697 + 2639533411
3862000999 * 569349481
4159870314 + 519468399
3047585136 + 432842984
656610675 * 1541502324
1629271413 + 1422251388
3747698048 * 2926540161
706377095 + 392672648
3633354121 + 3032610192
4089853331 + 89847198
1100829585 + 1338619304
3650885041 + 1892824498
1868371379 + 3288552894
3608704456 * 912048808
2493445592 + 887821788
771347933 * 3554465246
2017605097 * 2402006510
3826472432 + 241607592
2227746292 * 2839500278
708523511 * 2083157498
3755832830 + 1519474177
2489153035 * 1138005522
2421061145 * 512947738
2312552027 + 2460137013
3879474744 * 875722299
3045234236 * 1169561153
3069335107 + 3861567045
2568369736 + 1365317198
3013908058 * 3322238556
3172165904 * 3702388322
2236012133 * 3592869478
1685821032 * 4219754090
4035565163 * 102176365
707049070 + 2784327282
1919407735 + 2040800191
3969750659 * 257832580
4108031625 * 139105931
2047030928 * 2966509201
534967235 + 284497557
589223574 * 3455907481
810170014 + 975992483
1924642470 + 1440781992
2258630314 * 2715106863
3272496818 + 2237208247
2840737464 + 992761529
3764418236 + 2064856766
2889283268 * 3420600010
658937552 + 1236661969
2849355475 + 3356341976
2874275547 * 89167584
49608418 * 1211201252
3784957564 + 925603564
2183337710 * 172693231
837457648 * 53597937
3317397235 * 4018509558
3080107772 * 4251703037
2340083461 + 2712745738
3034224396 + 1573861136
2054772497 * 1125201687
3983136540 + 3641751325
1193760553 * 1785886515
4184487733 + 2443859767
50501461 * 3120101207
361564642 + 2540935009
517519203 * 3458668390
1856231276 * 641807249
2876430195 * 1839093620
3063633790 * 3407999979
603281285 + 1987483526
336312218 + 3428751260
2461767585 + 3608156073
4214159280 + 117123195
2702440372 * 1862113205
62601142 * 1038178237
2006923198 * 1780979649
667523014 * 2646053879
1567908290 * 3674290131
811718622 * 3147257823
2961389539 * 4495332
312375291 + 3154049022
3357587456 + 2154870791
394991626 + 149951490
1037047826 + 1715673112
3415439386 * 3151190045
394680360 * 4164991019
991844417 + 3017031351
1869674577 * 1330575442
946813013 * 3286210647
3646117977 + 3139836000
130947169 * 2694830181
2511018086 * 3706411112
3220322413 + 899358397
1553905781 * 2739681398
278026361 * 2974883520
183793795 + 4082432133
34936966 * 3049396361
815896720 + 3174144146
3168024724 * 1578449051
3899840672 * 2846251170
639916198 * 3701258409
3324680363 * 4147247475
1770641594 * 491763900
2329336001 * 51075266
4262607044 + 2467657931
1772632268 * 2574358733
1294948728 * 2203056343
246274268 * 3972577506
2336307579 + 3833862372
2071140585 * 1323587821
1422014706 + 1060714740
451025147 * 161732868
3953568130 + 398080270
2810059028 + 2018851094
2624747810 + 4066564393
3880966444 + 2658662701
4277803310 + 4134304049
3492772147 + 906279225
3611744574 + 4256422211
2347325765 * 4254316876
621713741 + 565901649
2888472916 * 1266702682
1355848079 * 1123629409
2481117538 * 929986918
3145554282 + 2972416402
1479661934 * 3709458799
4272716145 + 2082101651
1831483768 + 687356283
1937529213 * 3396548990
2939632011 + 289462669
1162156431 * 1045551504
3776297361 * 3881679250
723073427 * 3490265497
1683357423 * 974403997
611015071 * 98182214
1575328166 * 2668026288
3604019633 * 234371506
1529651673 + 536254900
1857771965 + 1467111870
2273515979 + 4047362514
1406556634 + 2228115933
2586614238 + 3258399206
1149016562 * 2592466003
594758057 * 2435439098
3747543547 + 2855901693
1362893322 + 551139851
440752655 + 2996378128
3201145368 + 2463767065
461445658 * 1006189084
2467446067 * 2128034338
3455067227 + 3444275748
3214653993 + 1616124461
81599022 * 2246638130
3186055732 * 2467928631
3297376827 * 21338685
3253213758 * 3624753728
2757417554 * 1358527059
2150038101 * 2111388246
1145338456 * 3477262095
1852414562 * 3355728485
1824725607 + 2334087786
1713633906 + 2347858550
352090746 * 497117631
1216789117 + 2241854079
2117671553 * 3204643459
3910359685 * 4011881581
3674856084 + 1017150107
3023067811 + 1631042214
3071384231 + 2894158509
1073666735 + 139836083
1098726069 * 60799671
2713025208 + 4213742267
1925708485 + 636926666
1284650103 * 3397925580
979794637 * 4201290447
792345300 * 3547527893
4066523865 + 3942701786
3823327967 + 3225664229
2446932710 * 4174043881
3859520236 * 3899996909
94973737 + 1598446329
593035050 * 797317890
2042641158 + 138509066
4164950795 + 2563513111
2608053017 + 2482356015
2220104484 * 3688610601
716372779 * 3651189550
1781668656 + 3336682290
923081531 * 2432187196
567778116 * 3534773066
1780223430 * 3508542285
1056774998 * 1587731291
3111361379 + 3986955110
88619880 + 3013065577
1932950383 * 3040025458
88128374 + 4142414715
280492925 * 346299267
301346625 * 2647464841
615168908 * 1716894606
277257104 + 4248918929
173197806 * 3642522519
2169109400 + 3577232284
3900499098 + 2900900766
1738103715 * 3496273053
1118706615 * 1843174332
3952196542 * 1434680255
312662985 + 1070537676
676530680 + 352803796
1202338774 + 949099480
4090313690 + 3658938874
968449006 + 2942278646
4077059073 * 631405570
1709358083 * 2605390862
969186321 + 698285076
350247958 * 2197748763
3962076192 * 2794732578
384646179 + 3147234341
1284553766 * 840457255
1212808233 * 826891310
3489381423 + 986430515
327400502 + 1057700920
580459580 * 3970611722
3564567616 + 3733879307
3929603146 * 2944769099
3565222989 * 3099450449
2938781539 * 1493115181
352623702 * 511319134
2983861349 + 438402152
1551883376 + 2199698549
2524683382 + 1351474300
1890699797 * 754130050
2289835141 + 3179928714
3956259981 + 998628494
2284559507 + 1866029593
3485187226 * 799103514
1840274594 + 3466501289
139992234 + 330472619
1386437806 + 3970137267
2259688628 * 214072501
908450998 + 1178631353
889732285 * 4055162049
2135751876 * 1732443334
3802327585 + 1722309834
1468570829 * 4047772878
3346824400 + 3295927506
1545034973 * 3252608222
1289706722 + 1617501414
582409448 * 3150298345
1821711594 * 506993913
3526712576 + 2722913553
848640558 * 3234864419
1106238756 * 3682393388
1681268019 * 2005474616
2363452909 * 4065090878
1889492288 + 1795669325
1017068878 + 1210998096
2815122773 + 3597892954
615275868 * 3946183227
2344466156 * 2037972331
487669100 + 4288937326
4011915837 + 2918664766
1445272954 + 2356059517
421641599 + 821509505
3183074691 + 513154442
239934859 + 90480022
968547737 * 1036713374
3670998433 * 407420328
3375524424 * 713547192
4284267962 * 1375722940
1320385983 + 933584321
592256451 * 2932325831
161062345 + 244932047
575536593 * 1466121683
1898257876 * 2217369046
3514162649 * 3313696222
118201824 * 3240492514
379747817 * 2391162346
1400004075 * 3577699823
3466018291 + 2002664951
1710390781 + 3528179198
3687939593 * 1256439311
2374417937 * 1972174357
1702936087 * 518241819
3591781919 * 2545016354
912612899 * 2940345892
3748558086 * 3241164330
3485466157 + 842759727
2822315569 + 918818739
3361586740 + 619511350
3125255741 * 2473647685
336969289 + 1003306571
3948854864 * 2527657563
456408669 + 1581727333
3607926034 * 3356499567
3336003184 * 1410031218
770965107 + 2816941688
130457211 * 3653410428
758398590 + 847527556
884317829 * 1831493260
1370496659 * 2235244180
2629697179 * 3748732577
2806382242 * 1926913699
444636840 + 4091281069
628399792 * 736763571
268910260 + 1681139281
3245958379 * 2744063263
1348460220 + 1206861501
302055104 + 3077963458
1807654598 + 1436245707
3360521933 * 518323918
2537520847 * 832151262
800620262 * 2693267175
3713171180 + 2156469999
4182728434 + 3257745140
945962741 * 888184566
1831034619 * 1454309119
2692767493 + 359153417
427343628 + 718405393
1369587483 * 2417090335
1644699424 * 3830218538
2011070255 + 3108552496
791174964 + 4193979017
3871653690 * 1925185343
2194448195 * 1135632200
1680071888 * 1598480205
56958802 * 3456147284
3810189144 + 1464999770
355909467 + 2704785247
2717966179 + 4213686121
3292970858 + 471793516
3565289327 + 1963917170
4145553268 + 2547833492
3826786174 + 1842716545
412852100 * 174055301
2218934150 + 3089184065
2683060114 + 3218296814
2219466649 + 3852140445
3305398174 + 376545183
2659491760 * 498450358
1294648649 + 2207317945
4192054633 * 3086557120
1462525890 + 3310182340
1153957829 + 3620569036
1111728081 * 350502873
3912327162 * 305487846
9822183 + 2531196906
3648307179 * 3297509360
3059597306 + 2844975100
