187 191
4002812
9755961
16299806
17595034
24322483
26428705
29574559
30316084
42348284
45296715
46284437
46702620
49544946
55141247
55823563
56655397
72389382
81328701
93753398
96951693
105491050
109789201
116965960
123808876
124823471
133553486
134088433
147282801
152688400
154445162
194231526
196475375
214145076
215987409
235554031
235871977
240065793
242661049
244973002
245330905
246518592
249802045
249901880
251743831
264936456
268138384
269640148
271459198
279790900
288557576
292813661
294947502
298086493
304892339
313517113
317983371
320863056
321102821
322286600
340661251
346324495
354306444
361124994
362763368
364002611
366326535
367180911
373812567
374223880
379435024
386639335
388205202
391377779
395593153
399981648
404075451
405836537
409272227
413118975
414486295
416599019
417845362
424000584
425067651
425245175
436454260
441032624
442390895
442971785
447203803
453784052
460742242
478632199
495320256
500339719
501636576
503788877
512834860
523098129
523783593
524149270
528169378
532483179
538047679
545281692
547027883
558430930
564358481
579825787
582247993
589890250
590862297
593237621
596252167
614293365
634977428
636434447
644715699
653642232
663229502
667113684
667855370
672717100
673421687
681373903
683833034
690366674
690487233
695639011
696115905
701229072
709679075
710127103
711310062
728106105
741100570
756416940
763942798
784818608
795829544
800084555
808112237
811428094
812455391
829173946
831884174
837064630
837261248
838871310
840634957
844986076
846172913
850380640
857536706
859736616
863043561
864674617
876688102
884745885
889621015
896254589
898625715
899032355
900656650
912088248
916814470
918003774
925150406
930512487
936636023
944685651
945840762
949099781
952823664
959421502
962698120
963199794
964893136
967976298
972380017
975984711
976454652
981247930
982726019
996114984
998453955
998935374
6978320
8535775
12034536
16299806
27728442
29980113
45068087
45296715
46641051
46702620
49544946
55141247
65723682
73439878
73978471
80146628
83954011
87015667
101572516
108171138
115742292
116965960
118827893
133553486
136441080
142009869
147168338
147282801
148677179
152688400
160065167
179342582
192695644
195953689
203423294
207261317
212947086
214512791
215987409
220015752
221312826
235871977
237548381
243439771
244973002
245330905
260772117
262133321
262943722
288212524
288557576
300899649
312095904
313699360
318136918
322541970
327828475
328769526
335233844
345539184
346324495
364002611
370097432
373428394
382741350
386639335
391377779
395447706
395593153
410373492
412295866
421873183
425245175
427393404
428135583
436454260
442390895
443332915
453784052
478632199
481960056
482524538
486331493
492913052
495320256
496807027
499840692
501636576
503782234
503933109
512834860
522524276
523783593
524149270
527480145
529323484
532483179
533941590
534419743
538047679
543870560
545281692
545819872
547027883
552640946
556234807
558240880
570023885
575254255
577349103
582192647
584433040
585395093
589890250
591208241
596252167
614293365
629373279
631414340
634977428
639041428
651459112
678092793
690328588
690487233
695639011
698748242
708182218
709679075
714550845
726405262
727442600
728106105
735277835
741100570
747701460
756416940
763942798
767903450
787730651
792816965
794321758
800084555
808112237
808382556
826813020
835961968
837064630
838662641
844725418
845825102
847180323
850380640
857109951
859736616
862428248
863043561
863691303
865882075
876688102
884745885
885077174
892178485
896946271
898625715
900656650
905233535
909973858
910531447
911865409
913099741
914126556
931979720
934037778
938657934
942989427
943218815
944685651
959421502
962698120
963199794
964271999
964893136
965637366
976454652
981247930
983553616
984647722
994866189
996114984
997681885
218 105
2568390
5034055
5352320
6441938
13367847
21036491
31898124
35266840
37617459
41469404
47101267
48008263
51597244
52240146
54008721
54194658
65522753
67290923
72469937
80679510
96705839
107433040
108532548
121528770
123576437
135991021
138622338
140131383
141987084
152041361
159938507
162321238
162694900
165361727
167367647
167767822
168964833
173323441
176470971
177023025
187339429
195186348
198483687
202887748
210473980
215034671
218510750
219596292
221721499
226610183
228843011
232405256
235138884
237461958
239850064
240216013
242254125
256774548
261595482
263902467
268436454
269836962
273444364
285268901
290550073
302731403
304702803
306263302
307789961
316111250
318493049
321720387
324617852
324730977
324886834
332979806
338603890
350498411
350699859
353098921
354691738
355820023
357223722
362076598
362803327
367626127
367782947
371654644
374119181
384697857
386586068
391189059
401394274
403074583
407142761
409617153
409934907
418959168
437804126
439620981
440384961
441824603
457584075
464856085
471044995
481027575
482346060
490452032
492795438
503166442
504227268
506369432
510611992
510821697
516220746
519012834
525091130
527045963
533202823
535232682
549562745
556687662
559491549
564244923
565381230
572590278
574119948
581277379
588629953
596521564
598365556
600480474
601940069
602292493
605078236
607389585
623524614
634828278
638585287
640266053
641211737
644304452
646221689
647491216
648461731
649900896
657963689
659925818
668716282
683079635
684832959
687404387
689400300
692263335
698381452
701386858
708544258
713346883
713883038
715534231
716675413
725689621
725960507
731289418
745252770
746780534
749123946
751363416
758191990
758828990
766942376
768364697
776341112
776487716
783629375
785353737
785363289
786608390
798341524
800337493
801295410
806768738
810495806
814822977
826265775
827123925
840911288
842162921
845146135
857290535
859543298
866647753
869520465
886530309
886816048
887412264
890996313
915364866
916160215
923101952
925760310
926695991
930093732
938122589
939097327
941141013
956259160
962794571
963338514
971986473
976662058
982632764
985717388
986765088
991638054
991856724
999079280
999326728
4126083
5034055
32240002
35266840
36990952
41469404
52240146
77839143
91555660
95871863
96705839
119840242
138622338
141487864
141987084
142841736
144506229
154307187
157535727
158777312
158809576
163736756
167367647
167767822
173323441
197010471
200305078
210473980
227009492
232346868
273444364
274434986
293676709
307789961
318493049
332722346
332979806
339490636
347909580
348772728
350498411
350699859
352665804
352722266
357223722
377748129
385177710
386586068
393033876
403520194
417806712
438528833
439257367
441879756
471044995
473652953
481084634
482346060
501445989
504227268
507975141
516220746
521065435
522899999
532139728
533202823
535232682
537488337
549562745
556687662
556973893
574119948
598365556
600480474
614079375
616465264
624461973
631202503
634828278
641211737
656708848
657967532
659925818
662575278
683079635
716675413
718810416
731552186
736282660
742757608
746715056
754807460
785363289
803563260
833877747
841765571
857959224
875189289
889896695
926211639
964229051
965795634
966797461
982632764
999326728
153 250
18728454
19022066
20151446
36433543
42689779
45280708
47907055
51184612
58058923
69819211
76542002
84108348
87063878
91322574
91552567
93629533
97329777
103406146
106890867
108158776
122642502
124726788
127927681
131040116
139763157
148273451
152102132
165490911
167659114
172935960
177143575
182690645
186822275
192145932
194689703
208487343
210729231
229877593
235021440
240065081
241920119
250528961
252379441
254921290
255120095
261143263
263679163
264586397
265702209
285568999
285647140
303879451
328469548
331375425
336538384
339332089
356089648
360175673
367043707
370191555
372983784
373247734
374625953
379193697
382423657
383627838
385255037
387289144
388101550
388408036
391102725
399318886
405967146
411493337
414864726
415993863
417873402
423039426
425605051
439495734
445098785
446918679
483092619
496034267
501540858
508838965
509031873
515730597
518748168
538167200
540358924
547757147
550878055
553397623
560611944
561970042
569874312
583788006
584825848
585157867
589962847
591794398
595148061
597776329
604924748
610250010
623889679
632933163
634047370
637393294
638650942
643993155
646572435
647462668
648059608
649288694
665413404
668067287
678859992
684176157
690511459
695264443
729202974
732926258
738448327
739888553
743866212
746291776
747114580
749371251
768199891
775969699
790608163
818957772
819554175
828644406
829694163
830878023
830960084
852275537
882048369
886448754
887378858
893029530
898543345
912933746
928929820
941085595
942632664
942842176
974718704
982407550
991573883
4915130
17782797
18728454
20692174
37421912
41491481
45280708
51184612
52817011
55235195
55937397
58058923
59561044
61635456
62522523
64358910
70636081
78050911
89463732
91322574
91552567
97329777
99977828
101380998
106890867
108158776
115534915
124726788
125459827
127927681
133234137
139763157
144169776
144395691
146490851
150774760
152102132
155361515
165490911
165586101
180819614
181855330
185387015
188115611
192145932
192343596
192520245
194689703
196658940
210729231
211025754
217018629
246716013
250528961
254428044
256649935
261143263
262357646
263679163
265702209
277395937
280743492
284327211
287971118
288555826
290243348
298701733
304791152
315277902
318989024
319703872
322510049
325175294
326130693
328469548
331375425
336538384
337218985
339332089
341577371
342379989
353081656
354976702
356089648
356620023
360813038
370191555
373247734
374625953
374775480
379193697
383627838
387289144
388101550
388408036
388622100
389837641
395641031
399318886
402557237
405967146
409742326
410524289
411493337
413028774
414864726
417873402
423340667
425605051
439220345
443762408
446473349
446918679
451131584
452562179
454334590
466359246
467419157
472140918
483092619
486966716
490680837
493297284
496678758
501540858
505550468
507167070
508056024
508875758
509031873
515730597
519693184
521905641
523021598
529102674
536303029
537032348
538167200
540358924
547757147
550878055
553397623
560471325
560611944
563189330
570745366
580640144
583788006
587059569
591794398
592026333
594399812
595148061
598127423
604924748
608249627
610250010
613941846
617102321
617743873
622373914
623889679
634047370
637393294
638650942
641211700
646572435
647462668
648059608
655554828
660651725
661447490
662357007
665413404
668067287
676570845
677879115
678859992
683508052
684176157
688289133
690511459
692131612
710091873
717053450
719740591
720894327
721541859
722953231
723522764
725848047
732585624
732926258
736976013
739888553
740067522
743308891
743866212
746291776
747114580
755493771
764260475
765604611
767133178
767725628
768199891
795031577
796598264
798091974
805639028
815271198
818957772
829694163
830960084
838729877
846120930
852275537
858433003
877155288
881538511
882048369
886448754
887378858
893029530
898543345
906122044
907226516
912933746
917308016
924242866
928929820
929088562
929310992
929389456
929522040
931064148
934833797
938190807
938824959
942842176
946185425
956544531
957598122
962773210
967550234
974718704
985565666
991573883
993605790
998934762
125 142
6481074
6916452
9905387
9937219
10396733
18865553
21867397
29744917
37401062
44144991
50919872
52025765
52285101
52324871
72482813
73691166
87338410
96747782
108918036
112319805
116801380
134393554
139963570
168450401
169599707
213932767
217882020
224584839
225352481
225530904
249472001
256853183
261153350
266109434
299650764
300932381
301531011
305586256
306806536
316578994
317340616
326736452
333983057
334829045
348043071
361482850
363980385
372356470
373570247
374526699
394045781
398405949
423946985
453443185
457426495
458528765
464522068
465493819
483406736
490988019
493590722
498421919
501604006
505844767
506362575
510128720
511988348
515635962
542217890
558541987
569077653
571972246
573212360
582828074
596912975
602552171
602755529
603679034
614189452
633311670
633432044
635014912
644474631
650318739
654636584
657052148
658258038
665598481
672059953
688646350
695781143
699191870
699724556
704023812
706561189
709290544
717935816
726668288
740107810
741670964
745272105
754856483
778351169
803079823
803318097
804934865
815301341
834233166
834467762
836778133
853514563
865342966
865506607
866101088
869391532
877161092
881681870
900932362
908014059
909570331
910281601
933233083
947715454
952071434
978775622
6481074
11953224
44144991
46592653
46934442
49962312
51720666
72482813
87338410
104568498
116801380
134393554
135050720
139963570
150626299
159161888
168450401
168823535
170899707
177737595
180850373
182654956
191753090
194640124
201492504
217882020
225352481
231002515
241155889
249472001
250459265
253126559
258709672
266109434
276624615
283041634
298035376
300190006
305586256
307545881
317192974
325233046
326736452
328210698
333567843
333983057
334829045
341229993
343038375
363550645
367871094
372356470
372493846
391569297
394045781
415840528
423486880
437878614
446750293
451993211
453295597
458528765
465493819
477330942
480326013
486130085
493590722
498421919
502628978
506362575
511988348
516520254
520947412
531773423
552736268
563649568
567180152
571972246
573560686
588561054
591877874
593873621
602755529
603679034
604868152
607259085
633432044
633504905
644045950
648203388
652382422
655902291
658258038
672059953
673165661
682182124
683423894
684449472
692187473
692195250
692996826
695781143
699191870
699724556
709290544
721006028
740107810
740406401
752955411
760422029
775973624
786554980
799288524
803079823
804934865
812461341
814356511
814526888
815301341
826688096
833694153
834233166
834467762
853514563
856476364
865817500
882890150
899788927
901886756
902301303
905504125
909570331
910270226
933233083
938061991
948564190
949309721
952071434
960804100
960934426
978040391
998119908
210 145
6911784
7075722
13512267
20147593
25689259
26227656
35987242
41836992
48609403
49324570
49822195
58180100
64503972
67667520
72315144
78907167
79063032
80096838
89389453
91948976
95605632
101284352
104468819
106455399
109367730
114242791
114855508
119683554
125341804
126004515
130426925
138132750
140843426
144635222
148459400
155407433
160046485
162401298
162952829
179597342
189262269
191730881
198620893
205420022
216380134
216447871
221067097
230724427
234471682
242152487
250538037
255609144
266258291
272914103
274254927
274896638
276014689
287840850
288477492
303901036
311739296
315583844
322155475
324722349
326633464
332531145
335478567
336357540
338474886
345047583
348547026
348767680
348978779
350770067
361526224
365707264
377778226
381874604
382137348
382757176
382799334
386153001
387698774
392649292
393731744
402451251
405528702
412687408
418782057
421642226
425779297
426138629
437112485
438052953
444877219
447633176
450066881
468922755
471875363
472098203
474481432
478347746
480222675
486641847
491227825
498168654
500833374
507752465
508043329
514776080
516200701
517937815
528583164
534659676
538775032
542572367
546806048
549002388
552572279
555579352
558601679
559795266
563241107
567877481
568806950
569428566
570290216
576161043
578091236
584211810
593672367
602576473
605244448
609113822
635651355
653604133
659859708
664121589
668074576
668572864
682974398
689498055
691901776
695315363
702672823
709261058
716048199
722630181
727698940
732957678
737698788
748365139
749888596
762787758
768455713
769512410
772954238
775450498
789393924
793579254
794830060
806642354
806729142
811059596
812170741
812892304
819618494
821193344
822108891
824305715
825625013
828208381
852844747
856666890
858950505
859860330
861036516
861393676
867225461
867904529
877836541
883216060
884635114
890052442
892091954
892160395
896615666
903725247
908655522
915738127
920590273
924896610
929521258
930704296
934560888
939717394
941321783
942290951
943467168
953652909
953994993
954560142
959735905
961500198
963067626
969643140
973653859
978193439
992923882
995900793
20147593
32518814
35826995
41836992
48609403
49324570
53096846
55344807
56055572
58180100
60296594
61805598
72315144
80096838
88432836
94261785
95605632
99852838
104468819
107397594
117190029
125341804
152170568
161238798
176309667
200796627
205788693
205970607
212456238
225904941
227440611
250538037
258830114
275515776
287840850
288477492
288650423
289043875
295862026
315583844
324722349
329382655
331730477
333560239
338474886
351249836
361526224
363211097
366120301
377778226
379316382
381874604
382137348
384900397
384990027
387698774
393731744
396599671
400397556
414410606
418464685
437112485
448457011
450066881
470315397
472157527
486641847
487405278
488362469
491227825
500833374
504246878
511624661
512672274
513247460
519848372
534659676
538775032
549002388
551316176
554848721
558601679
559728347
562844901
562907888
570290216
586261938
590023283
591314482
593184480
593339507
599002253
602739461
605244448
611891744
614501788
651979109
653604133
668572864
669049919
682974398
685780724
691901776
697607211
709261058
712295568
739152655
757045060
757749238
763868351
769512410
772954238
775450498
778981381
789393924
812170741
821193344
824519709
828208381
828289734
829086522
847184672
851713484
869029456
870055159
883216060
884799611
890052442
890799193
892091954
892582502
899279649
903725247
906861119
909248373
911731432
915230477
915738127
920590273
930641798
933325529
950382487
954560142
974203010
978193439
75 188
8209144
18745923
25644255
47893514
81931366
92112154
101102406
101682427
101898951
111152305
114905501
116602090
143258264
148793341
185515258
187977955
191788104
194580852
226351121
238981483
240602060
262503108
272186340
274384409
284410443
296002892
323244999
346319711
363352005
405153180
405854468
430256977
470821693
472208346
481821339
492045080
499320164
512343945
528925718
552320942
557033538
566823465
567567622
571001888
579246526
580022761
582344392
589001066
619629670
621936612
629136984
637964545
668708790
685652209
695202717
695293330
706881164
709079018
717284433
757600261
786167788
797841666
808065437
821617089
824937200
831775312
849477234
899625785
901760740
910434253
912965496
940169722
986724838
991964460
993220100
8209144
11846973
13891273
18745923
19543080
27657418
39660276
43459770
47893514
53673541
54202900
78545640
78742643
81468146
82731675
88059421
90892668
92112154
92184663
92255072
99320967
101102406
101682427
101898951
105431214
111152305
114905501
116602090
121415885
141230317
143258264
145120529
148793341
149041014
154317782
166319885
169668289
174848524
185515258
187770484
187977955
191788104
194580852
198793459
205352036
210824869
222674887
226351121
229813428
231407185
235892821
238981483
240602060
255209242
259898617
260655199
260943848
261631464
261899989
262503108
263506133
272186340
280544850
284410443
285374336
296002892
308653692
312009245
313372690
323244999
323839171
329229268
337740566
338871906
346319711
349393561
351353667
354047590
354695385
363352005
368487075
377171243
380347917
386258853
389758980
394572041
405153180
405330401
405854468
409204357
409863119
424853407
424990618
427759323
427892246
430256977
441427562
448793097
470821693
472208346
481821339
499320164
512343945
524674379
526790755
527477199
527721483
528925718
534598700
544379436
551466952
552320942
554161104
557033538
558962833
566823465
567567622
570228209
579184392
579246526
580022761
582344392
605745497
606798059
616586795
619629670
620124717
621936612
625362105
629136984
637964545
649261069
659142557
660642139
668708790
669037300
683315115
685652209
693040982
695202717
695293330
706881164
713417513
717284433
720619852
735906869
765494429
776764654
778036721
781611399
781711839
785925770
786167788
796580993
797228251
797841666
808065437
815535872
825227718
831775312
839644019
841852878
848023988
863630997
883962443
889468663
901760740
904559960
908732030
910434253
912593437
912965496
913707656
928212966
936803208
940169722
940305682
947338070
961630861
965017558
968824046
973332048
975994469
988793680
991759370
993220100
996813487
999089978
198 156
6251458
12055353
24112521
33113217
33550223
34094040
35403780
37255111
54414729
58048148
67569354
77236597
77307001
90208036
93085905
106011469
123035059
123632896
127620373
142475233
142655672
150120846
155203445
161105107
174614361
175151944
177172093
178119851
180384755
188121933
190733600
193242652
211559478
222310092
223994130
224774810
238100344
238849801
244751737
245144218
247622211
247643212
256540086
260760085
272322537
274572087
277026250
292526156
299464683
302841137
304138996
306041758
309991828
312767348
313895305
320970031
321427223
323699960
337553007
340335503
344305987
346711531
349707938
358128462
365053158
365726600
372656122
375717729
381532408
381619402
383416796
392772987
397406710
406147662
412831169
413303773
413449794
413500120
420631616
421295721
426368895
427117375
428487616
432787415
433552068
433913947
435757444
436588468
450644993
451049894
454481831
460189647
460713041
461754013
465816306
468521214
468679244
481721390
486992536
492283704
502698807
506063733
525355341
527220723
535150403
539838659
548705700
559641147
560544144
561197623
564416252
571273171
571292748
573527845
574171602
575464909
576428884
600255505
618743441
622627886
625408355
628318192
633138554
634377947
638537731
642459378
651707358
656141244
658971343
659973364
663054382
664819119
674967469
679016081
684839300
688603278
688803655
689191589
691991020
693282738
695421537
695566260
700798176
702860232
705740835
707953652
717779026
723386049
724118548
724176261
724286456
727314744
735589462
735999614
737738589
742747894
744705749
749207974
749589829
754634918
760639473
782814260
804168986
804396988
805463157
809454027
812590973
812711494
815294534
815764108
816185106
821032077
824485924
825670846
828435560
832947388
838951507
849501717
854712594
879338103
895603012
895619454
897611018
910187045
917634366
923927828
934547105
935752119
937835903
949335323
953554030
959129139
967975148
987971122
987983635
988395081
988963930
998045444
3197933
10906152
22164824
50266831
66148603
75285369
76427064
77338140
93085905
100385849
104593677
122915437
123035059
125629186
127784862
149514853
150120846
155203445
155866876
161932730
166322011
173140842
174614361
182791809
193242652
202864723
230776456
238100344
243137994
244751737
247148131
256540086
257174055
260760085
270480463
272975444
273313687
286416664
287843987
290772119
292975274
299403757
305710268
306041758
321427223
339245975
339695376
344246302
344305987
347720317
349928819
350452666
365053158
366144277
372656122
379515568
379880278
380140938
387359428
397406710
404174720
406147662
421827937
431663860
432926437
433913947
436588468
439306597
446721844
452383895
454481831
455128691
461754013
468679244
481229743
484776312
491991847
492283704
511342902
518840371
538907010
539838659
550632608
552458343
552799028
561197623
564782427
582047228
584981909
585347146
586196671
598005185
602603289
603432206
611597333
621382860
638491905
638537731
642374687
651887203
656141244
658971343
659973364
664819119
673510737
688728387
688841455
701331472
705740835
717779026
726988804
734828689
735999614
737738589
742747894
746515890
750767274
754634918
757671728
760175827
778047175
787075521
789843660
795993221
796769951
799835321
803382188
809590053
811065732
812074848
822246022
824485924
825670846
846838495
850993218
854712594
871460392
876582643
878082951
879815802
901600684
910187045
917766594
921797629
923927828
927835524
934547105
937835903
943846178
950308432
974207461
982229835
987983635
988213523
988963930
997470494
133 136
11870875
12261610
25898366
29218849
35155036
37577987
53079581
55319642
65647464
70534040
75488480
84884866
85621682
102328775
113290746
121174814
125301554
146161473
148428260
152865253
161723408
172376630
179181401
188249961
202233593
205353201
212342177
215703494
230493785
242012841
252983404
259823284
262226514
263900719
264594702
269133592
285849791
298322011
311123001
315153763
315674421
317722806
317915515
324978736
336817469
345947742
351042321
359563155
368141284
369289186
371631096
372703818
384901694
393335564
396521103
397552520
406209601
408579445
414803428
415461519
462083284
462546145
464206680
471225980
521786189
522495634
530253599
532855388
538626636
545774273
569574100
576343539
578164503
587247019
600593702
601736129
605326128
608341996
609244732
610252477
612030088
621520749
627333656
630165282
632634922
636731536
642068650
650279435
651602187
652081462
670847200
680405532
681468969
686447200
708248812
709648111
718236846
721861377
730913494
744822725
745564846
747584972
751960669
754138564
759523019
762899303
809316075
814812367
817709351
826661066
833330044
838186967
846940633
861291432
861918474
866115744
866295874
876410977
877253295
878492250
886912265
887983441
903303899
903676382
926645229
951155565
953275212
954690153
956591653
965814900
977768266
982330135
999846592
1450899
9944569
12261610
15381167
19870955
35155036
36531825
38086551
53079581
53183199
56525349
70985405
97722840
111260978
125301554
138071657
144066134
152865253
166229654
202233593
216998685
217805265
232567722
234108369
242012841
247197447
252983404
259584942
259823284
261121191
264594702
285849791
297275933
306558810
314871671
315674421
316283347
324849861
335610127
341789846
359563155
368770280
382409007
384901694
389412900
396521103
408579445
409228938
414884561
415461519
418534709
421402954
423475908
434157973
437621113
440389841
447146020
447356044
453870493
456530457
462546145
467899685
487987397
495231834
505622422
522495634
528392123
537547891
544943128
581363475
600593702
601400375
605326128
612030088
614870425
618571460
621520749
626050792
627333656
630165282
636731536
639421822
643178143
647034263
651236677
651840649
652081462
665409370
668487054
670847200
673706623
677565139
680405532
681468969
686447200
695853972
704437738
707693361
725722322
740120695
740167948
744143978
746524971
749158448
749892560
751960669
752032290
777835222
809316075
811810249
814055940
820964652
824183349
825903214
826661066
841051870
841550426
845659560
861291432
866115744
866295874
877253295
886912265
903303899
905520153
926789637
933591880
951155565
956591653
970237873
977768266
982330135
991151882
992585064
998750638
999846592
81 34
15519393
19272867
20507048
20746146
29173584
36152632
46902194
58507789
66107098
77309813
82515446
89250677
99129604
109560569
145009356
153925092
158094116
167561732
170516467
189686073
192369450
192411812
200927828
201719276
219414694
246124857
278674131
326197367
327522645
337501466
343671489
372320437
373798870
378129311
417428125
431698709
433274745
436801359
443239918
465914007
468018982
472345393
483496913
507496992
534496875
547768077
558296165
559070044
594607950
611905581
637181518
637611960
646686213
672121082
686890534
728404452
744023124
751247628
769425418
790952347
805570499
828014724
862102975
865563993
866905860
879708453
898280566
909095334
920917988
922044070
944466807
946658658
947430401
948454867
950998569
954773265
967278517
978109343
986816453
994800070
996543600
36152632
44453108
110107261
133074968
170516467
205099085
248659988
278674131
291790144
297892283
330053610
343671489
373798870
424408474
430670406
468018982
511575298
558165113
559070044
559631476
616591611
637181518
672121082
680126395
693610068
778200562
793189882
865563993
884851731
909095334
930539733
944466807
959702702
981715609
240 53
1627375
7274493
9172351
14326552
18503993
23369729
23633418
35423351
37630338
38194677
38919551
39191394
39449748
49505334
55047895
61481355
74695020
78942813
83587046
85614554
87643506
88050591
95617679
102106131
106106331
106332970
107091214
108502059
111186647
112077519
113733423
114237719
127571253
132648124
137836308
140773322
148824422
155473648
156112224
158848450
163059773
164740330
167649081
171431592
176921333
177128918
177829158
179838255
180749859
180864054
197455325
198593584
213956140
216201400
217394414
220221359
227281763
228067889
241082319
243770073
251207252
258144004
260468829
260981034
263893264
267513431
274219952
275154182
276334241
277891547
282266435
283294970
283989492
285819279
295506859
297167910
305327209
306696649
308555570
316509199
322216499
325426794
331078950
337611895
338732019
344043339
344175839
344512412
345273936
365007437
373419285
375829414
383219506
385677674
405726565
406677537
411899988
413250399
413929436
416949655
420798412
422332941
436541197
437087149
440396843
442945956
451575456
452854345
454245475
472689196
472810600
475045247
477627631
481177756
482215001
493776325
502443233
507507550
515285780
516987095
521405879
525905157
526714590
527274068
528163854
528577157
538753594
546501863
552855036
553425086
553562223
558551834
558803402
565415513
571371340
577875680
591657546
595622546
596101035
596983438
597510601
598272896
599670923
600934065
602524532
607422552
610665980
615165603
617271585
619063987
626109813
626809600
628652637
629725037
631469947
631722070
633011845
635525884
642679235
658602242
659199654
662347719
663452294
674044351
675554571
676803941
677525368
678027061
680673340
682833466
688850421
696995603
697252529
710251853
724668533
730728119
739340389
741330618
743878590
745671951
752035016
761725377
762885697
769988765
782974445
785072229
789628289
802408335
809837731
810335602
814581542
825028443
825205279
828434585
833082905
837210699
852385017
856843985
868974179
874650163
874721871
883112229
888210927
888498628
889662972
890167663
898108835
900251789
902107382
903481612
906025047
906844162
907198973
907768815
911289337
914179079
914193377
918504150
919218829
923880889
927417779
929080426
931935576
932025799
932073515
935883463
939483370
949308227
950885367
960755859
960885171
969083619
971074048
971132707
976101638
982008070
983406390
987311623
990517427
994371952
20791222
27725443
29167322
40921445
42815099
73043385
75677001
102134749
141249945
151334644
151485814
164740330
167649081
175801967
178597743
199925590
260981034
272706152
285529539
315528896
317989515
347486232
351487112
376269811
397563449
411899988
420431626
425018053
454245475
507837019
515285780
525661705
526714590
527020644
535874078
547212449
554113057
628058893
647076135
724668533
733288618
752027883
771011545
811272162
814347114
821718486
835256630
874721871
883112229
910406309
934597594
935314917
960755859
0 0

