Case 1: 1
Case 2: impossible
Case 3: 24
Case 4: 25
Case 5: 25
Case 6: 25
Case 7: 26
Case 8: 26
Case 9: impossible
Case 10: 9
Case 11: 3
Case 12: 25
Case 13: 1
Case 14: 0
Case 15: 0
Case 16: 26
Case 17: 1
Case 18: 0
